18.064674,12.37793,0
19.068935,14.041197,1
20.073198,15.704464,2
21.07746,17.367731,3
22.081722,19.030998,4
23.085983,20.694263,5
24.090246,22.357533,6
25.094507,24.0208,7
26.09877,25.684067,8
27.103031,27.347332,9
28.107294,29.0106,10
29.111557,30.673868,11
30.115818,32.337135,12
31.120079,34.0004,13
32.12434,35.66367,14
33.128605,37.326935,15
34.132866,38.990204,16
35.137127,40.65347,17
36.141388,42.316734,18
37.145653,43.980003,19
38.149914,45.64327,20
39.154175,47.306538,21
40.15844,48.969807,22
41.162697,50.63307,23
42.16696,52.29634,24
43.171223,53.959606,25
44.175484,55.62287,26
45.17975,57.286137,27
46.184006,58.94941,28
47.18827,60.612675,29
48.192535,62.27594,30
49.196796,63.93921,31
50.201057,65.60248,32
51.20532,67.26574,33
52.20958,68.92901,34
53.21384,70.59228,35
54.218105,72.25554,36
55.222366,73.91881,37
56.22663,75.58208,38
57.230892,77.245346,39
58.235153,78.90861,40
59.239414,80.57188,41
60.243675,82.235146,42
61.247936,83.89841,43
62.2522,85.56168,44
63.256462,87.224945,45
64.26073,88.888214,46
65.264984,90.55148,47
66.26924,92.21475,48
67.27351,93.87801,49
68.27777,95.54128,50
69.28203,97.204544,51
70.28629,98.86781,52
