42,,,,,,,,,,,,,,,,,,,,,,,,,,,,,,,,,,
,,,,,,,,,,,,,,,,,,,,,,,,,,,,,,,,,,
,,,,,,,,,,,,,,,,,,,,,,,,,,,,,,,,,,
,,,,,,,,,,,,,,,,,,,,,,,,,,,,,,,,,,
,,,,,,,,,,,,,,,,,,,,,,,,,,,,,,,,,,
Minimum size,6,,,,,,,,,,,,,,,,,,,,,,,,,,,,,,,,,
Maximum size,8,,,,,,,,,,,,,,,,,,,,,,,,,,,,,,,,,
min Constraint,3,,,,,,,,,,,,,,,,,,,,,,,,,,,,,,,,,
meeting points,100,,,,,,,,,,,,,,,,,,,,,,,,,,,,,,,,,
max distance,0.4,,,,,,,,,,,,,,,,,,,,,,,,,,,,,,,,,
K,8,,,,,,,,,,,,,,,,,,,,,,,,,,,,,,,,,
,,,,,,,,,,,,,,,,,,,,,,,,,,,,,,,,,,
,,,,,,,,,,,,,,,,,,,,,,,,,,,,,,,,,,
,,,,,,,,,,,,,,,,,,,,,,,,,,,,,,,,,,
n',,,,,,,,,,,,,,,,,,,,,,,,,,,,,,,,,,
,FFGQ_approx_1,FFGQ_approx_2,FFGQ_exact,FFGQ_greedy,FFGQ_b_extended,FFGQ_approx_1,FFGQ_approx_2,FFGQ_exact,FFGQ_greedy,FFGQ_b_extended,FFGQ_exact & FFGQ_approx_1,,,,,,FFGQ_exact & FFGQ_approx_2,,,,,,FFGQ_exact & FFGQ_greedy,,,,,,FFGQ_exact & FFGQ_b_extended,,,,,
,iteration,,,,,time,,,,,precision,1.5k,2k,4k,recall,overlap,precision,1.5k,2k,4k,recall,overlap,precision,1.5k,2k,4k,recall,overlap,precision,1.5k,2k,4k,recall,overlap
6,12522,2612,35776,525,38226,35656,36557,39652,35786,43990,99.4047619,100,100,100,99.73544974,100,52.38095238,66.96428571,85.11904762,100,48.86157129,88.85582011,52.38095238,66.96428571,85.11904762,100,48.86157129,88.85582011,99.70238095,100,100,100,100,100
,,,,,,,,,,,,,,,,,,,,,,,,,,,,,,,,,,
,,,,,,,,,,,,,,,,,,,,,,,,,,,,,,,,,,
,,,,,,,,,,,,,,,,,,,,,,,,,,,,,,,,,,
c,,,,,,,,,,,,,,,,,,,,,,,,,,,,,,,,,,
,FFGQ_approx_1,FFGQ_approx_2,FFGQ_exact,FFGQ_greedy,FFGQ_b_extended,FFGQ_approx_1,FFGQ_approx_2,FFGQ_exact,FFGQ_greedy,FFGQ_b_extended,FFGQ_exact & FFGQ_approx_1,,,,,,FFGQ_exact & FFGQ_approx_2,,,,,,FFGQ_exact & FFGQ_greedy,,,,,,FFGQ_exact & FFGQ_b_extended,,,,,
,iteration,,,,,time,,,,,precision,1.5k,2k,4k,recall,overlap,precision,1.5k,2k,4k,recall,overlap,precision,1.5k,2k,4k,recall,overlap,precision,1.5k,2k,4k,recall,overlap
2,0,0,15521118,0,0,0,0,2000050,0,0,   NaN,NaN,NaN,NaN,NaN,NaN,NaN,NaN,NaN,NaN,NaN,NaN,NaN,NaN,NaN,NaN,NaN,NaN,NaN,NaN,NaN,NaN,NaN,NaN
3,12522,2612,35776,525,38226,35656,36557,39652,35786,43990,99.4047619,100,100,100,99.73544974,100,52.38095238,66.96428571,85.11904762,100,48.86157129,88.85582011,52.38095238,66.96428571,85.11904762,100,48.86157129,88.85582011,99.70238095,100,100,100,100,100
4,1138,549,2351,196,1809,35146,34470,33756,34841,41876,15.17857143,52.38095238,85.11904762,65.47619048,43.28512726,92.55952381,NaN,NaN,NaN,NaN,NaN,NaN,NaN,NaN,NaN,NaN,NaN,NaN,100,100,100,66.66666667,100,100
5,0,0,0,0,0,35030,34455,35325,34579,41886,   NaN,NaN,NaN,NaN,0,NaN,NaN,NaN,NaN,NaN,NaN,NaN,NaN,NaN,NaN,NaN,NaN,NaN,NaN,NaN,NaN,NaN,0,NaN
,,,,,,,,,,,,,,,,,,,,,,,,,,,,,,,,,,
,,,,,,,,,,,,,,,,,,,,,,,,,,,,,,,,,,
,,,,,,,,,,,,,,,,,,,,,,,,,,,,,,,,,,
dm,,,,,,,,,,,,,,,,,,,,,,,,,,,,,,,,,,
,FFGQ_approx_1,FFGQ_approx_2,FFGQ_exact,FFGQ_greedy,FFGQ_b_extended,FFGQ_approx_1,FFGQ_approx_2,FFGQ_exact,FFGQ_greedy,FFGQ_b_extended,FFGQ_exact & FFGQ_approx_1,,,,,,FFGQ_exact & FFGQ_approx_2,,,,,,FFGQ_exact & FFGQ_greedy,,,,,,FFGQ_exact & FFGQ_b_extended,,,,,
,iteration,,,,,time,,,,,precision,1.5k,2k,4k,recall,overlap,precision,1.5k,2k,4k,recall,overlap,precision,1.5k,2k,4k,recall,overlap,precision,1.5k,2k,4k,recall,overlap
35,3392,555,12185,175,10657,33733,33651,34428,33369,37299,93.1547619,97.61904762,95.23809524,16.66666667,94.21837422,100,36.12811791,54.05612245,65.73412698,20.63492063,44.66027591,86.50793651,9.821428571,16.07142857,17.85714286,11.60714286,31.81291639,86.50793651,100,97.61904762,95.23809524,16.66666667,100,100
40,12522,2612,35776,525,38226,35656,36557,39652,35786,43990,99.4047619,100,100,100,99.73544974,100,52.38095238,66.96428571,85.11904762,100,48.86157129,88.85582011,52.38095238,66.96428571,85.11904762,100,48.86157129,88.85582011,99.70238095,100,100,100,100,100
45,26958,4777,75633,562,100868,37622,37364,41695,36650,49567,100,100,100,100,100,100,99.4047619,100,100,100,99.47089947,100,99.4047619,100,100,100,99.47089947,100,100,100,100,100,100,100
50,69955,11307,254320,597,899426,40180,37711,53864,37497,114514,99.10714286,100,100,100,99.20634921,100,97.32142857,100,100,100,97.61904762,100,0,0,0,0,14.90972686,88.0952381,100,100,100,100,100,100
,,,,,,,,,,,,,,,,,,,,,,,,,,,,,,,,,,
,,,,,,,,,,,,,,,,,,,,,,,,,,,,,,,,,,
,,,,,,,,,,,,,,,,,,,,,,,,,,,,,,,,,,
,,,,,,,,,,,,,,,,,,,,,,,,,,,,,,,,,,
,FFGQ_approx_1,FFGQ_approx_2,FFGQ_exact,FFGQ_greedy,FFGQ_b_extended,FFGQ_approx_1,FFGQ_approx_2,FFGQ_exact,FFGQ_greedy,FFGQ_b_extended,FFGQ_exact & FFGQ_approx_1,,,,,,FFGQ_exact & FFGQ_approx_2,,,,,,FFGQ_exact & FFGQ_greedy,,,,,,FFGQ_exact & FFGQ_b_extended,,,,,
,iteration,,,,,time,,,,,precision,1.5k,2k,4k,recall,overlap,precision,1.5k,2k,4k,recall,overlap,precision,1.5k,2k,4k,recall,overlap,precision,1.5k,2k,4k,recall,overlap
,,,,,,,,,,,,,,,,,,,,,,,,,,,,,,,,,,
,,,,,,,,,,,,,,,,,,,,,,,,,,,,,,,,,,
,,,,,,,,,,,,,,,,,,,,,,,,,,,,,,,,,,
mp,,,,,,,,,,,,,,,,,,,,,,,,,,,,,,,,,,
,FFGQ_approx_1,FFGQ_approx_2,FFGQ_exact,FFGQ_greedy,FFGQ_b_extended,FFGQ_approx_1,FFGQ_approx_2,FFGQ_exact,FFGQ_greedy,FFGQ_b_extended,FFGQ_exact & FFGQ_approx_1,,,,,,FFGQ_exact & FFGQ_approx_2,,,,,,FFGQ_exact & FFGQ_greedy,,,,,,FFGQ_exact & FFGQ_b_extended,,,,,
,iteration,,,,,time,,,,,precision,1.5k,2k,4k,recall,overlap,precision,1.5k,2k,4k,recall,overlap,precision,1.5k,2k,4k,recall,overlap,precision,1.5k,2k,4k,recall,overlap
50,6111,1296,18442,261,18452,33786,33737,35199,33874,37817,96.13095238,100,100,90.47619048,96.69071669,100,41.66666667,62.79761905,91.66666667,90.47619048,52.06849064,89.15343915,41.36904762,61.30952381,86.60714286,90.47619048,47.87105982,91.26984127,100,100,100,90.47619048,100,100
100,12522,2612,35776,525,38226,35656,36557,39652,35786,43990,99.4047619,100,100,100,99.73544974,100,52.38095238,66.96428571,85.11904762,100,48.86157129,88.85582011,52.38095238,66.96428571,85.11904762,100,48.86157129,88.85582011,99.70238095,100,100,100,100,100
200,25364,5286,70042,1057,77503,38752,38454,43974,37901,53960,100,100,100,100,100,100,86.60714286,89.88095238,94.94047619,100,77.36687783,94.97354497,86.60714286,89.88095238,94.94047619,100,77.36687783,94.97354497,99.70238095,100,100,100,99.52380952,100
400,51563,10598,141010,2113,158403,46616,43962,54597,44481,81041,99.70238095,100,100,100,100,100,99.10714286,100,100,100,99.47089947,100,99.10714286,100,100,100,99.47089947,100,99.70238095,100,100,100,100,100
,,,,,,,,,,,,,,,,,,,,,,,,,,,,,,,,,,
,,,,,,,,,,,,,,,,,,,,,,,,,,,,,,,,,,
,,,,,,,,,,,,,,,,,,,,,,,,,,,,,,,,,,
,,,,,,,,,,,,,,,,,,,,,,,,,,,,,,,,,,
,FFGQ_approx_1,FFGQ_approx_2,FFGQ_exact,FFGQ_greedy,FFGQ_b_extended,FFGQ_approx_1,FFGQ_approx_2,FFGQ_exact,FFGQ_greedy,FFGQ_b_extended,FFGQ_exact & FFGQ_approx_1,,,,,,FFGQ_exact & FFGQ_approx_2,,,,,,FFGQ_exact & FFGQ_greedy,,,,,,FFGQ_exact & FFGQ_b_extended,,,,,
,iteration,,,,,time,,,,,precision,1.5k,2k,4k,recall,overlap,precision,1.5k,2k,4k,recall,overlap,precision,1.5k,2k,4k,recall,overlap,precision,1.5k,2k,4k,recall,overlap
,,,,,,,,,,,,,,,,,,,,,,,,,,,,,,,,,,
,,,,,,,,,,,,,,,,,,,,,,,,,,,,,,,,,,
,,,,,,,,,,,,,,,,,,,,,,,,,,,,,,,,,,
,,,,,,,,,,,,,,,,,,,,,,,,,,,,,,,,,,
,FFGQ_approx_1,FFGQ_approx_2,FFGQ_exact,FFGQ_greedy,FFGQ_b_extended,FFGQ_approx_1,FFGQ_approx_2,FFGQ_exact,FFGQ_greedy,FFGQ_b_extended,FFGQ_exact & FFGQ_approx_1,,,,,,FFGQ_exact & FFGQ_approx_2,,,,,,FFGQ_exact & FFGQ_greedy,,,,,,FFGQ_exact & FFGQ_b_extended,,,,,
,iteration,,,,,time,,,,,precision,1.5k,2k,4k,recall,overlap,precision,1.5k,2k,4k,recall,overlap,precision,1.5k,2k,4k,recall,overlap,precision,1.5k,2k,4k,recall,overlap
,,,,,,,,,,,,,,,,,,,,,,,,,,,,,,,,,,
,,,,,,,,,,,,,,,,,,,,,,,,,,,,,,,,,,
,,,,,,,,,,,,,,,,,,,,,,,,,,,,,,,,,,
,,,,,,,,,,,,,,,,,,,,,,,,,,,,,,,,,,
,FFGQ_approx_1,FFGQ_approx_2,FFGQ_exact,FFGQ_greedy,FFGQ_b_extended,FFGQ_approx_1,FFGQ_approx_2,FFGQ_exact,FFGQ_greedy,FFGQ_b_extended,FFGQ_exact & FFGQ_approx_1,,,,,,FFGQ_exact & FFGQ_approx_2,,,,,,FFGQ_exact & FFGQ_greedy,,,,,,FFGQ_exact & FFGQ_b_extended,,,,,
,iteration,,,,,time,,,,,precision,1.5k,2k,4k,recall,overlap,precision,1.5k,2k,4k,recall,overlap,precision,1.5k,2k,4k,recall,overlap,precision,1.5k,2k,4k,recall,overlap
,,,,,,,,,,,,,,,,,,,,,,,,,,,,,,,,,,
,,,,,,,,,,,,,,,,,,,,,,,,,,,,,,,,,,
,,,,,,,,,,,,,,,,,,,,,,,,,,,,,,,,,,
n'',,,,,,,,,,,,,,,,,,,,,,,,,,,,,,,,,,
,FFGQ_approx_1,FFGQ_approx_2,FFGQ_exact,FFGQ_greedy,FFGQ_b_extended,FFGQ_approx_1,FFGQ_approx_2,FFGQ_exact,FFGQ_greedy,FFGQ_b_extended,FFGQ_exact & FFGQ_approx_1,,,,,,FFGQ_exact & FFGQ_approx_2,,,,,,FFGQ_exact & FFGQ_greedy,,,,,,FFGQ_exact & FFGQ_b_extended,,,,,
,iteration,,,,,time,,,,,precision,1.5k,2k,4k,recall,overlap,precision,1.5k,2k,4k,recall,overlap,precision,1.5k,2k,4k,recall,overlap,precision,1.5k,2k,4k,recall,overlap
6,7717,2335,13182,490,12296,37492,37844,37161,37339,37114,100,100,100,9.523809524,100,100,94.04761905,99.10714286,100,9.523809524,92.97430083,98.80952381,0,0.892857143,11.9047619,7.142857143,36.75701374,83.73015873,100,100,100,9.523809524,100,100
7,11078,2602,21687,517,26371,36136,36157,36971,36055,39406,100,100,100,85.71428571,100,100,95.83333333,100,100,85.71428571,96.2962963,100,95.83333333,100,100,85.71428571,96.2962963,100,100,100,100,85.71428571,100,100
8,12522,2612,35776,525,38226,35656,36557,39652,35786,43990,99.4047619,100,100,100,99.73544974,100,52.38095238,66.96428571,85.11904762,100,48.86157129,88.85582011,52.38095238,66.96428571,85.11904762,100,48.86157129,88.85582011,99.70238095,100,100,100,100,100
9,12608,2612,49656,525,45301,35819,35036,41141,34292,46947,15.47619048,63.69047619,97.91666667,100,55.05482535,99.73544974,11.01190476,39.88095238,57.44047619,100,36.52615946,88.88888889,11.01190476,39.88095238,57.44047619,100,36.52615946,88.88888889,100,100,100,100,100,100