38,,,,,,,,,,,,,,,,,,,,,,,,,,,,,,,,,,
,,,,,,,,,,,,,,,,,,,,,,,,,,,,,,,,,,
,,,,,,,,,,,,,,,,,,,,,,,,,,,,,,,,,,
,,,,,,,,,,,,,,,,,,,,,,,,,,,,,,,,,,
,,,,,,,,,,,,,,,,,,,,,,,,,,,,,,,,,,
Minimum size,5,,,,,,,,,,,,,,,,,,,,,,,,,,,,,,,,,
Maximum size,7,,,,,,,,,,,,,,,,,,,,,,,,,,,,,,,,,
min Constraint,3,,,,,,,,,,,,,,,,,,,,,,,,,,,,,,,,,
meeting points,100,,,,,,,,,,,,,,,,,,,,,,,,,,,,,,,,,
max distance,0.4,,,,,,,,,,,,,,,,,,,,,,,,,,,,,,,,,
K,8,,,,,,,,,,,,,,,,,,,,,,,,,,,,,,,,,
,,,,,,,,,,,,,,,,,,,,,,,,,,,,,,,,,,
,,,,,,,,,,,,,,,,,,,,,,,,,,,,,,,,,,
,,,,,,,,,,,,,,,,,,,,,,,,,,,,,,,,,,
n',,,,,,,,,,,,,,,,,,,,,,,,,,,,,,,,,,
,FFGQ_approx_1,FFGQ_approx_2,FFGQ_exact,FFGQ_greedy,FFGQ_b_extended,FFGQ_approx_1,FFGQ_approx_2,FFGQ_exact,FFGQ_greedy,FFGQ_b_extended,FFGQ_exact & FFGQ_approx_1,,,,,,FFGQ_exact & FFGQ_approx_2,,,,,,FFGQ_exact & FFGQ_greedy,,,,,,FFGQ_exact & FFGQ_b_extended,,,,,
,iteration,,,,,time,,,,,precision,1.5k,2k,4k,recall,overlap,precision,1.5k,2k,4k,recall,overlap,precision,1.5k,2k,4k,recall,overlap,precision,1.5k,2k,4k,recall,overlap
4,2976,2979,25103,417,33266,31643,31659,33011,31422,36918,97.36842105,100,100,100,97.66081871,100,84.21052632,99.34210526,100,100,86.80284628,100,0,0,0,97.36842105,31.25195528,83.33333333,100,100,100,100,100,100
5,11321,2984,43974,448,52878,31958,31660,34626,31555,38274,98.68421053,100,100,100,98.83040936,100,75,99.67105263,100,100,81.15691326,100,79.93421053,99.67105263,100,100,85.60667403,100,100,100,100,100,100,100
6,19775,3706,79125,581,72644,32078,31264,39887,31417,40454,0,16.44736842,85.19736842,100,50.25032415,95.02923977,0,15.78947368,72.36842105,100,43.96065594,88.88888889,0,15.78947368,72.36842105,100,43.96065594,88.88888889,100,100,100,100,100,100
7,22984,4765,61310,488,57932,32232,31214,38194,31332,40269,98.35526316,100,100,100,97.58639022,100,10.52631579,45.39473684,75,100,39.32528,88.88888889,10.52631579,45.39473684,75,100,39.32528,88.88888889,100,100,100,100,100,100
,,,,,,,,,,,,,,,,,,,,,,,,,,,,,,,,,,
,,,,,,,,,,,,,,,,,,,,,,,,,,,,,,,,,,
,,,,,,,,,,,,,,,,,,,,,,,,,,,,,,,,,,
c,,,,,,,,,,,,,,,,,,,,,,,,,,,,,,,,,,
,FFGQ_approx_1,FFGQ_approx_2,FFGQ_exact,FFGQ_greedy,FFGQ_b_extended,FFGQ_approx_1,FFGQ_approx_2,FFGQ_exact,FFGQ_greedy,FFGQ_b_extended,FFGQ_exact & FFGQ_approx_1,,,,,,FFGQ_exact & FFGQ_approx_2,,,,,,FFGQ_exact & FFGQ_greedy,,,,,,FFGQ_exact & FFGQ_b_extended,,,,,
,iteration,,,,,time,,,,,precision,1.5k,2k,4k,recall,overlap,precision,1.5k,2k,4k,recall,overlap,precision,1.5k,2k,4k,recall,overlap,precision,1.5k,2k,4k,recall,overlap
2,1143436,24293,20288962,278,52794940,124082,34659,2030233,31465,3941947,97.69736842,100,100,100,97.95321637,100,96.71052632,100,100,100,97.07602339,100,0,0,0,0,0,NaN,94.73684211,100,100,100,95.49707602,100
3,11321,2984,43974,448,52878,31958,31660,34626,31555,38274,98.68421053,100,100,100,98.83040936,100,75,99.67105263,100,100,81.15691326,100,79.93421053,99.67105263,100,100,85.60667403,100,100,100,100,100,100,100
4,1493,1493,6982,341,4447,31123,31228,31225,31478,35620,   NaN,NaN,NaN,NaN,0,NaN,NaN,NaN,NaN,NaN,NaN,NaN,NaN,NaN,NaN,NaN,NaN,NaN,100,100,100,100,100,100
5,0,0,0,0,0,31195,30979,31108,31122,35400,   NaN,NaN,NaN,NaN,0,NaN,NaN,NaN,NaN,NaN,NaN,NaN,NaN,NaN,NaN,NaN,NaN,NaN,NaN,NaN,NaN,NaN,0,NaN
,,,,,,,,,,,,,,,,,,,,,,,,,,,,,,,,,,
,,,,,,,,,,,,,,,,,,,,,,,,,,,,,,,,,,
,,,,,,,,,,,,,,,,,,,,,,,,,,,,,,,,,,
dm,,,,,,,,,,,,,,,,,,,,,,,,,,,,,,,,,,
,FFGQ_approx_1,FFGQ_approx_2,FFGQ_exact,FFGQ_greedy,FFGQ_b_extended,FFGQ_approx_1,FFGQ_approx_2,FFGQ_exact,FFGQ_greedy,FFGQ_b_extended,FFGQ_exact & FFGQ_approx_1,,,,,,FFGQ_exact & FFGQ_approx_2,,,,,,FFGQ_exact & FFGQ_greedy,,,,,,FFGQ_exact & FFGQ_b_extended,,,,,
,iteration,,,,,time,,,,,precision,1.5k,2k,4k,recall,overlap,precision,1.5k,2k,4k,recall,overlap,precision,1.5k,2k,4k,recall,overlap,precision,1.5k,2k,4k,recall,overlap
0.35,3698,1126,16998,300,16117,30426,30319,31731,30293,33673,82.89473684,97.69736842,100,100,78.17942292,100,83.22368421,84.86842105,95.06578947,100,68.62529769,92.43421053,83.22368421,83.55263158,83.55263158,100,59.978563,92.43421053,100,100,100,100,100,100
0.4,11321,2984,43974,448,52878,31958,31660,34626,31555,38274,98.68421053,100,100,100,98.83040936,100,75,99.67105263,100,100,81.15691326,100,79.93421053,99.67105263,100,100,85.60667403,100,100,100,100,100,100,100
0.45,17565,3950,72982,461,113076,32270,31787,36353,31813,41291,99.67105263,100,100,100,100,100,98.35526316,100,100,100,98.83040936,100,13.48684211,54.93421053,87.17105263,100,47.91917875,86.65413534,99.67105263,100,100,100,100,100
0.5,23581,5428,160057,536,668304,33637,32433,42011,32544,79484,100,100,100,100,100,100,98.68421053,100,100,100,98.83040936,100,0,0,0,0,14.43459161,85.71428571,100,100,100,100,100,100
,,,,,,,,,,,,,,,,,,,,,,,,,,,,,,,,,,
,,,,,,,,,,,,,,,,,,,,,,,,,,,,,,,,,,
,,,,,,,,,,,,,,,,,,,,,,,,,,,,,,,,,,
k,,,,,,,,,,,,,,,,,,,,,,,,,,,,,,,,,,
,FFGQ_approx_1,FFGQ_approx_2,FFGQ_exact,FFGQ_greedy,FFGQ_b_extended,FFGQ_approx_1,FFGQ_approx_2,FFGQ_exact,FFGQ_greedy,FFGQ_b_extended,FFGQ_exact & FFGQ_approx_1,,,,,,FFGQ_exact & FFGQ_approx_2,,,,,,FFGQ_exact & FFGQ_greedy,,,,,,FFGQ_exact & FFGQ_b_extended,,,,,
,iteration,,,,,time,,,,,precision,1.5k,2k,4k,recall,overlap,precision,1.5k,2k,4k,recall,overlap,precision,1.5k,2k,4k,recall,overlap,precision,1.5k,2k,4k,recall,overlap
4,11307,2981,42881,444,52878,31439,30917,33362,30960,36868,98.68421053,100,100,100,98.94736842,100,86.18421053,99.34210526,100,100,89.04761905,100,86.18421053,99.34210526,100,100,89.04761905,100,100,100,100,100,100,100
8,11321,2984,43974,448,52878,31958,31660,34626,31555,38274,98.68421053,100,100,100,98.83040936,100,75,99.67105263,100,100,81.15691326,100,79.93421053,99.67105263,100,100,85.60667403,100,100,100,100,100,100,100
16,11384,2990,46392,452,52878,31329,31179,34450,31044,36936,99.34210526,100,100,100,99.38080495,100,94.40789474,100,100,100,95.50540438,99.67105263,97.53289474,100,100,100,97.26522188,99.67105263,100,100,100,100,100,100
32,11472,2994,50875,452,52878,31457,31016,34850,30921,36833,98.35526316,100,100,100,98.30462967,100,86.75986842,100,100,100,87.60835491,88.74269006,74.83552632,89.63815789,98.4375,99.36842105,59.35642996,78.80116959,99.91776316,100,100,97.36842105,100,100
,,,,,,,,,,,,,,,,,,,,,,,,,,,,,,,,,,
,,,,,,,,,,,,,,,,,,,,,,,,,,,,,,,,,,
,,,,,,,,,,,,,,,,,,,,,,,,,,,,,,,,,,
k,,,,,,,,,,,,,,,,,,,,,,,,,,,,,,,,,,
,FFGQ_approx_1,FFGQ_approx_2,FFGQ_exact,FFGQ_greedy,FFGQ_b_extended,FFGQ_approx_1,FFGQ_approx_2,FFGQ_exact,FFGQ_greedy,FFGQ_b_extended,FFGQ_exact & FFGQ_approx_1,,,,,,FFGQ_exact & FFGQ_approx_2,,,,,,FFGQ_exact & FFGQ_greedy,,,,,,FFGQ_exact & FFGQ_b_extended,,,,,
,iteration,,,,,time,,,,,precision,1.5k,2k,4k,recall,overlap,precision,1.5k,2k,4k,recall,overlap,precision,1.5k,2k,4k,recall,overlap,precision,1.5k,2k,4k,recall,overlap
50,5736,1500,23631,225,26676,29914,29868,31427,29866,32774,99.34210526,100,100,94.73684211,99.41520468,100,87.82894737,99.34210526,100,100,91.01868891,99.0497076,93.42105263,99.67105263,100,100,93.47611453,98.75730994,100,100,100,94.73684211,100,100
100,11321,2984,43974,448,52878,31958,31660,34626,31555,38274,98.68421053,100,100,100,98.83040936,100,75,99.67105263,100,100,81.15691326,100,79.93421053,99.67105263,100,100,85.60667403,100,100,100,100,100,100,100
200,22729,5992,86508,891,106136,33839,33160,39011,33309,45100,99.34210526,100,100,100,99.41520468,100,95.39473684,100,100,100,95.42264753,100,95.39473684,100,100,100,95.42264753,100,100,100,100,100,100,100
400,45297,11937,170332,1771,212072,39306,37800,48527,37976,61594,98.35526316,100,100,100,98.5380117,100,96.05263158,100,100,100,96.49122807,100,96.05263158,100,100,100,96.49122807,100,100,100,100,100,100,100
,,,,,,,,,,,,,,,,,,,,,,,,,,,,,,,,,,
,,,,,,,,,,,,,,,,,,,,,,,,,,,,,,,,,,
,,,,,,,,,,,,,,,,,,,,,,,,,,,,,,,,,,
alpha,,,,,,,,,,,,,,,,,,,,,,,,,,,,,,,,,,
,FFGQ_approx_1,FFGQ_approx_2,FFGQ_exact,FFGQ_greedy,FFGQ_b_extended,FFGQ_approx_1,FFGQ_approx_2,FFGQ_exact,FFGQ_greedy,FFGQ_b_extended,FFGQ_exact & FFGQ_approx_1,,,,,,FFGQ_exact & FFGQ_approx_2,,,,,,FFGQ_exact & FFGQ_greedy,,,,,,FFGQ_exact & FFGQ_b_extended,,,,,
,iteration,,,,,time,,,,,precision,1.5k,2k,4k,recall,overlap,precision,1.5k,2k,4k,recall,overlap,precision,1.5k,2k,4k,recall,overlap,precision,1.5k,2k,4k,recall,overlap
0.33,11321,2984,43974,448,52878,31958,31660,34626,31555,38274,98.68421053,100,100,100,98.83040936,100,75,99.67105263,100,100,81.15691326,100,79.93421053,99.67105263,100,100,85.60667403,100,100,100,100,100,100,100
0.5,11578,2852,36589,401,52878,31331,30966,32835,30937,36837,100,100,100,100,100,100,88.81578947,100,100,100,93.00903775,100,55.26315789,100,100,100,85.99681021,100,96.05263158,100,100,100,96.08187135,100
0.75,11281,2834,24865,401,52878,31235,30997,31833,30940,36900,100,100,100,100,100,100,88.81578947,100,100,100,93.00903775,100,55.26315789,100,100,100,85.99681021,100,96.71052632,100,100,100,96.66666667,100
1,11163,2830,24617,389,52878,31363,31139,31764,31066,36963,100,100,100,100,100,100,100,100,100,100,100,100,100,100,100,100,100,100,100,100,100,100,100,100
,,,,,,,,,,,,,,,,,,,,,,,,,,,,,,,,,,
,,,,,,,,,,,,,,,,,,,,,,,,,,,,,,,,,,
,,,,,,,,,,,,,,,,,,,,,,,,,,,,,,,,,,
beta,,,,,,,,,,,,,,,,,,,,,,,,,,,,,,,,,,
,FFGQ_approx_1,FFGQ_approx_2,FFGQ_exact,FFGQ_greedy,FFGQ_b_extended,FFGQ_approx_1,FFGQ_approx_2,FFGQ_exact,FFGQ_greedy,FFGQ_b_extended,FFGQ_exact & FFGQ_approx_1,,,,,,FFGQ_exact & FFGQ_approx_2,,,,,,FFGQ_exact & FFGQ_greedy,,,,,,FFGQ_exact & FFGQ_b_extended,,,,,
,iteration,,,,,time,,,,,precision,1.5k,2k,4k,recall,overlap,precision,1.5k,2k,4k,recall,overlap,precision,1.5k,2k,4k,recall,overlap,precision,1.5k,2k,4k,recall,overlap
0.33,11321,2984,43974,448,52878,31958,31660,34626,31555,38274,98.68421053,100,100,100,98.83040936,100,75,99.67105263,100,100,81.15691326,100,79.93421053,99.67105263,100,100,85.60667403,100,100,100,100,100,100,100
0.5,7660,2332,24327,412,52878,31223,31042,32351,31015,36865,100,100,81.57894737,100,100,100,0,0,0,0,NaN,85.71428571,0,0,1.644736842,2.4663398,NaN,85.71428571,95.39473684,100,81.57894737,90.23131412,95.48112706,100
0.75,2206,1129,5021,304,52878,30965,30928,31129,31068,36908,100,81.57894737,90.816511,100,100,100,0,0,0,0,NaN,80,0,0,0,0,NaN,80,81.90789474,81.25,81.85,81.85,87.16883117,100
1,1243,712,4990,273,52878,31131,30993,31215,31107,37099,100,81.57894737,89.635179,100,100,100,0,0,0,0,NaN,80,0,0,0,0,NaN,80,83.55263158,81.57894737,81.5526,81.5526,88.2379349,100
,,,,,,,,,,,,,,,,,,,,,,,,,,,,,,,,,,
,,,,,,,,,,,,,,,,,,,,,,,,,,,,,,,,,,
,,,,,,,,,,,,,,,,,,,,,,,,,,,,,,,,,,
gamma,,,,,,,,,,,,,,,,,,,,,,,,,,,,,,,,,,
,FFGQ_approx_1,FFGQ_approx_2,FFGQ_exact,FFGQ_greedy,FFGQ_b_extended,FFGQ_approx_1,FFGQ_approx_2,FFGQ_exact,FFGQ_greedy,FFGQ_b_extended,FFGQ_exact & FFGQ_approx_1,,,,,,FFGQ_exact & FFGQ_approx_2,,,,,,FFGQ_exact & FFGQ_greedy,,,,,,FFGQ_exact & FFGQ_b_extended,,,,,
,iteration,,,,,time,,,,,precision,1.5k,2k,4k,recall,overlap,precision,1.5k,2k,4k,recall,overlap,precision,1.5k,2k,4k,recall,overlap,precision,1.5k,2k,4k,recall,overlap
0.33,11321,2984,43974,448,52878,31958,31660,34626,31555,38274,98.68421053,100,100,100,98.83040936,100,75,99.67105263,100,100,81.15691326,100,79.93421053,99.67105263,100,100,85.60667403,100,100,100,100,100,100,100
0.5,11321,2996,51194,452,52878,31363,30979,35035,30969,36897,98.68421053,100,100,100,98.83040936,100,94.73684211,100,100,100,95.32163743,100,94.73684211,100,100,100,95.32163743,100,100,100,100,100,100,100
0.75,11321,2996,52088,452,52878,31415,30933,35016,30971,36861,98.68421053,100,100,100,98.83040936,100,94.73684211,100,100,100,95.32163743,100,94.73684211,100,100,100,95.32163743,100,100,100,100,100,100,100
1,418,547,24443,256,52878,31012,31009,32507,30977,36877,100,100,100,100,100,45.45454545,100,100,100,100,100,36.36363636,100,100,100,100,100,36.36363636,100,100,100,100,100,78.22966507
,,,,,,,,,,,,,,,,,,,,,,,,,,,,,,,,,,
,,,,,,,,,,,,,,,,,,,,,,,,,,,,,,,,,,
,,,,,,,,,,,,,,,,,,,,,,,,,,,,,,,,,,
n'',,,,,,,,,,,,,,,,,,,,,,,,,,,,,,,,,,
,FFGQ_approx_1,FFGQ_approx_2,FFGQ_exact,FFGQ_greedy,FFGQ_b_extended,FFGQ_approx_1,FFGQ_approx_2,FFGQ_exact,FFGQ_greedy,FFGQ_b_extended,FFGQ_exact & FFGQ_approx_1,,,,,,FFGQ_exact & FFGQ_approx_2,,,,,,FFGQ_exact & FFGQ_greedy,,,,,,FFGQ_exact & FFGQ_b_extended,,,,,
,iteration,,,,,time,,,,,precision,1.5k,2k,4k,recall,overlap,precision,1.5k,2k,4k,recall,overlap,precision,1.5k,2k,4k,recall,overlap,precision,1.5k,2k,4k,recall,overlap
5,4167,1717,6919,365,10879,30997,31047,31105,30992,31287,100,100,100,0,100,100,100,100,100,100,100,100,100,100,100,100,100,100,100,100,100,100,100,100
6,8815,2653,20196,417,30109,31492,31497,32201,31439,34305,99.34210526,100,100,100,99.41520468,100,97.36842105,100,100,100,97.66081871,100,0,0,0,97.36842105,31.41281772,83.33333333,100,100,100,100,100,100
7,11321,2984,43974,448,52878,31958,31660,34626,31555,38274,98.68421053,100,100,100,98.83040936,100,75,99.67105263,100,100,81.15691326,100,79.93421053,99.67105263,100,100,85.60667403,100,100,100,100,100,100,100
8,11640,2977,74303,450,72145,31690,31078,38084,31122,40306,98.35526316,99.67105263,100,100,97.60233918,100,85.19736842,91.77631579,97.69736842,100,77.77196271,93.85964912,85.19736842,91.77631579,97.69736842,100,77.77196271,93.85964912,100,100,100,100,100,100