50,,,,,,,,,,,,,,,,,,,,,,,,,,,,,,,,,,
,,,,,,,,,,,,,,,,,,,,,,,,,,,,,,,,,,
,,,,,,,,,,,,,,,,,,,,,,,,,,,,,,,,,,
,,,,,,,,,,,,,,,,,,,,,,,,,,,,,,,,,,
,,,,,,,,,,,,,,,,,,,,,,,,,,,,,,,,,,
Minimum size,5,,,,,,,,,,,,,,,,,,,,,,,,,,,,,,,,,
Maximum size,7,,,,,,,,,,,,,,,,,,,,,,,,,,,,,,,,,
min Constraint,3,,,,,,,,,,,,,,,,,,,,,,,,,,,,,,,,,
meeting points,100,,,,,,,,,,,,,,,,,,,,,,,,,,,,,,,,,
max distance,0.4,,,,,,,,,,,,,,,,,,,,,,,,,,,,,,,,,
K,8,,,,,,,,,,,,,,,,,,,,,,,,,,,,,,,,,
,,,,,,,,,,,,,,,,,,,,,,,,,,,,,,,,,,
,,,,,,,,,,,,,,,,,,,,,,,,,,,,,,,,,,
,,,,,,,,,,,,,,,,,,,,,,,,,,,,,,,,,,
n',,,,,,,,,,,,,,,,,,,,,,,,,,,,,,,,,,
,FFGQ_approx_1,FFGQ_approx_2,FFGQ_exact,FFGQ_greedy,FFGQ_b_extended,FFGQ_approx_1,FFGQ_approx_2,FFGQ_exact,FFGQ_greedy,FFGQ_b_extended,FFGQ_exact & FFGQ_approx_1,,,,,,FFGQ_exact & FFGQ_approx_2,,,,,,FFGQ_exact & FFGQ_greedy,,,,,,FFGQ_exact & FFGQ_b_extended,,,,,
,iteration,,,,,time,,,,,precision,1.5k,2k,4k,recall,overlap,precision,1.5k,2k,4k,recall,overlap,precision,1.5k,2k,4k,recall,overlap,precision,1.5k,2k,4k,recall,overlap
4,716,716,1212,189,171175,120,121,121,119,686,98.5,100,100,4,98.66666667,100,98.5,100,100,100,98.66666667,100,7,43,85.25,85.25,47.80286992,96.71428571,100,100,100,100,100,100
5,2446,1241,3290,267,470559,125,124,131,120,1733,98.25,100,100,0,98.44444444,100,96.75,100,100,100,97.11111111,100,91.25,98.75,100,100,88.84184704,100,100,100,100,100,100,100
6,41366,4693,89419,475,1564321,285,146,478,120,5795,100,100,100,100,100,100,98.25,100,100,100,98.44444444,100,77.5,97,97,97,79.55864467,100,100,100,100,100,100,100
7,141442,18610,251264,546,2021464,705,218,1227,119,7616,100,100,100,100,100,100,99.75,100,100,100,100,100,99.75,100,100,100,100,100,100,100,100,100,100,100
,,,,,,,,,,,,,,,,,,,,,,,,,,,,,,,,,,
,,,,,,,,,,,,,,,,,,,,,,,,,,,,,,,,,,
,,,,,,,,,,,,,,,,,,,,,,,,,,,,,,,,,,
c,,,,,,,,,,,,,,,,,,,,,,,,,,,,,,,,,,
,FFGQ_approx_1,FFGQ_approx_2,FFGQ_exact,FFGQ_greedy,FFGQ_b_extended,FFGQ_approx_1,FFGQ_approx_2,FFGQ_exact,FFGQ_greedy,FFGQ_b_extended,FFGQ_exact & FFGQ_approx_1,,,,,,FFGQ_exact & FFGQ_approx_2,,,,,,FFGQ_exact & FFGQ_greedy,,,,,,FFGQ_exact & FFGQ_b_extended,,,,,
,iteration,,,,,time,,,,,precision,1.5k,2k,4k,recall,overlap,precision,1.5k,2k,4k,recall,overlap,precision,1.5k,2k,4k,recall,overlap,precision,1.5k,2k,4k,recall,overlap
2,29194,6064,33516,464,233329018,206,150,218,121,1230352,99.75,100,100,100,99.77777778,100,98.5,100,100,100,98.66666667,100,0,0,0,21,20.90335751,97.42857143,100,100,100,98,100,100
3,2446,1241,3290,267,470559,125,124,131,120,1733,98.25,100,100,100,98.44444444,100,96.75,100,100,100,97.11111111,100,91.25,98.75,100,100,88.84184704,100,100,100,100,100,100,100
4,2175,2175,1853,400,12111,123,123,125,117,154,0,0,0,0,0,0,0,0,0,0,0,0,0,0,0,0,0,0,100,100,100,100,100,100
5,0,0,0,0,0,116,116,116,116,125,   NaN,NaN,NaN,NaN,0,NaN,NaN,NaN,NaN,NaN,NaN,NaN,NaN,NaN,NaN,NaN,NaN,NaN,NaN,NaN,NaN,NaN,0,NaN
,,,,,,,,,,,,,,,,,,,,,,,,,,,,,,,,,,
,,,,,,,,,,,,,,,,,,,,,,,,,,,,,,,,,,
,,,,,,,,,,,,,,,,,,,,,,,,,,,,,,,,,,
dm,,,,,,,,,,,,,,,,,,,,,,,,,,,,,,,,,,
,FFGQ_approx_1,FFGQ_approx_2,FFGQ_exact,FFGQ_greedy,FFGQ_b_extended,FFGQ_approx_1,FFGQ_approx_2,FFGQ_exact,FFGQ_greedy,FFGQ_b_extended,FFGQ_exact & FFGQ_approx_1,,,,,,FFGQ_exact & FFGQ_approx_2,,,,,,FFGQ_exact & FFGQ_greedy,,,,,,FFGQ_exact & FFGQ_b_extended,,,,,
,iteration,,,,,time,,,,,precision,1.5k,2k,4k,recall,overlap,precision,1.5k,2k,4k,recall,overlap,precision,1.5k,2k,4k,recall,overlap,precision,1.5k,2k,4k,recall,overlap
0.35,1557,933,1948,230,218220,120,120,120,117,795,98,100,100,100,98.44444444,100,96.5,100,100,100,97.11111111,100,90.5,98.25,97.5,97.5,87.2463742,100,100,100,100,100,100,100
0.4,2446,1241,3290,267,470559,125,124,131,120,1733,98.25,100,100,100,98.44444444,100,96.75,100,100,100,97.11111111,100,91.25,98.75,100,100,88.84184704,100,100,100,100,100,100,100
0.45,4573,1636,8411,276,1992731,131,125,138,119,7544,97.75,100,100,100,98,100,96.5,100,100,100,96.88888889,100,93.25,99.5,100,100,91.86666667,100,100,100,100,100,100,100
0.5,6293,2010,12880,302,2639135,138,128,152,121,10063,97.75,100,100,100,98,100,97.25,100,100,100,97.55555556,100,94.5,99.75,100,100,93.72063492,100,100,100,100,100,100,100
,,,,,,,,,,,,,,,,,,,,,,,,,,,,,,,,,,
,,,,,,,,,,,,,,,,,,,,,,,,,,,,,,,,,,
,,,,,,,,,,,,,,,,,,,,,,,,,,,,,,,,,,
k,,,,,,,,,,,,,,,,,,,,,,,,,,,,,,,,,,
,FFGQ_approx_1,FFGQ_approx_2,FFGQ_exact,FFGQ_greedy,FFGQ_b_extended,FFGQ_approx_1,FFGQ_approx_2,FFGQ_exact,FFGQ_greedy,FFGQ_b_extended,FFGQ_exact & FFGQ_approx_1,,,,,,FFGQ_exact & FFGQ_approx_2,,,,,,FFGQ_exact & FFGQ_greedy,,,,,,FFGQ_exact & FFGQ_b_extended,,,,,
,iteration,,,,,time,,,,,precision,1.5k,2k,4k,recall,overlap,precision,1.5k,2k,4k,recall,overlap,precision,1.5k,2k,4k,recall,overlap,precision,1.5k,2k,4k,recall,overlap
4,1784,1029,2217,235,470559,122,121,123,118,1684,94.5,100,100,100,95.6,100,94,100,100,100,95.2,100,93,99.5,100,100,93.94285714,100,100,100,100,100,100,100
8,2446,1241,3290,267,470559,125,124,131,120,1733,98.25,100,100,100,98.44444444,100,96.75,100,100,100,97.11111111,100,91.25,98.75,100,100,88.84184704,100,100,100,100,100,100,100
16,3884,1596,5923,389,470559,128,124,132,119,1668,97.625,100,100,100,97.10230478,100,97.25,100,100,100,96.66515308,100,66,81.875,91.75,91.75,52.94860213,100,100,100,100,100,100,100
32,6470,2216,10443,542,470559,137,127,145,119,1681,84.0625,100,100,100,81.59426897,100,83.6875,100,100,100,81.02432021,100,42.6875,49.4375,49.375,51.5,51.93865166,100,100,100,80,100,100,100
,,,,,,,,,,,,,,,,,,,,,,,,,,,,,,,,,,
,,,,,,,,,,,,,,,,,,,,,,,,,,,,,,,,,,
,,,,,,,,,,,,,,,,,,,,,,,,,,,,,,,,,,
mp,,,,,,,,,,,,,,,,,,,,,,,,,,,,,,,,,,
,FFGQ_approx_1,FFGQ_approx_2,FFGQ_exact,FFGQ_greedy,FFGQ_b_extended,FFGQ_approx_1,FFGQ_approx_2,FFGQ_exact,FFGQ_greedy,FFGQ_b_extended,FFGQ_exact & FFGQ_approx_1,,,,,,FFGQ_exact & FFGQ_approx_2,,,,,,FFGQ_exact & FFGQ_greedy,,,,,,FFGQ_exact & FFGQ_b_extended,,,,,
,iteration,,,,,time,,,,,precision,1.5k,2k,4k,recall,overlap,precision,1.5k,2k,4k,recall,overlap,precision,1.5k,2k,4k,recall,overlap,precision,1.5k,2k,4k,recall,overlap
50,1914,800,2978,188,233202,119,117,121,114,887,96.5,100,100,100,96.22222222,100,94.25,100,100,100,94.22222222,100,68.25,83.75,89.25,90.5,62.00192917,100,100,100,100,100,100,100
100,2446,1241,3290,267,470559,125,124,131,120,1733,98.25,100,100,100,98.44444444,100,96.75,100,100,100,97.11111111,100,91.25,98.75,100,100,88.84184704,100,100,100,100,100,100,100
200,3452,2058,4180,470,940124,133,131,134,126,3152,98.75,100,100,100,98.88888889,100,98.5,100,100,100,98.66666667,100,98.5,100,100,100,98.66666667,100,100,100,100,100,100,100
400,6032,3745,7224,899,1868154,155,152,157,143,6280,98.5,100,100,100,98.66666667,100,97.5,100,100,100,97.77777778,100,97.5,100,100,100,97.77777778,100,100,100,100,100,100,100
,,,,,,,,,,,,,,,,,,,,,,,,,,,,,,,,,,
,,,,,,,,,,,,,,,,,,,,,,,,,,,,,,,,,,
,,,,,,,,,,,,,,,,,,,,,,,,,,,,,,,,,,
alpha,,,,,,,,,,,,,,,,,,,,,,,,,,,,,,,,,,
,FFGQ_approx_1,FFGQ_approx_2,FFGQ_exact,FFGQ_greedy,FFGQ_b_extended,FFGQ_approx_1,FFGQ_approx_2,FFGQ_exact,FFGQ_greedy,FFGQ_b_extended,FFGQ_exact & FFGQ_approx_1,,,,,,FFGQ_exact & FFGQ_approx_2,,,,,,FFGQ_exact & FFGQ_greedy,,,,,,FFGQ_exact & FFGQ_b_extended,,,,,
,iteration,,,,,time,,,,,precision,1.5k,2k,4k,recall,overlap,precision,1.5k,2k,4k,recall,overlap,precision,1.5k,2k,4k,recall,overlap,precision,1.5k,2k,4k,recall,overlap
0.33,2446,1241,3290,267,470559,125,124,131,120,1733,98.25,100,100,100,98.44444444,100,96.75,100,100,100,97.11111111,100,91.25,98.75,100,100,88.84184704,100,100,100,100,100,100,100
0.5,9942,3029,16914,425,470559,148,132,163,119,1685,91.5,100,100,100,89.95959596,97.71428571,98.25,100,100,100,98.31111111,100,5.25,53.25,91.25,91.25,55.12690289,90.66666667,100,100,100,100,100,100
0.75,14754,5299,30782,505,470559,169,142,206,120,1685,99.75,100,100,100,99.77777778,100,99.25,100,100,100,99.33333333,100,0,0,1.75,86.25,26.23523613,0,99.75,100,100,100,99.77777778,100
1,11537,852,43426,504,470559,165,121,248,119,1652,100,100,100,100,100,100,100,100,100,100,100,100,0,100,100,100,68.12121212,0,100,100,100,100,100,100
,,,,,,,,,,,,,,,,,,,,,,,,,,,,,,,,,,
,,,,,,,,,,,,,,,,,,,,,,,,,,,,,,,,,,
,,,,,,,,,,,,,,,,,,,,,,,,,,,,,,,,,,
beta,,,,,,,,,,,,,,,,,,,,,,,,,,,,,,,,,,
,FFGQ_approx_1,FFGQ_approx_2,FFGQ_exact,FFGQ_greedy,FFGQ_b_extended,FFGQ_approx_1,FFGQ_approx_2,FFGQ_exact,FFGQ_greedy,FFGQ_b_extended,FFGQ_exact & FFGQ_approx_1,,,,,,FFGQ_exact & FFGQ_approx_2,,,,,,FFGQ_exact & FFGQ_greedy,,,,,,FFGQ_exact & FFGQ_b_extended,,,,,
,iteration,,,,,time,,,,,precision,1.5k,2k,4k,recall,overlap,precision,1.5k,2k,4k,recall,overlap,precision,1.5k,2k,4k,recall,overlap,precision,1.5k,2k,4k,recall,overlap
0.33,2446,1241,3290,267,470559,125,124,131,120,1733,98.25,100,100,100,98.44444444,100,96.75,100,100,100,97.11111111,100,91.25,98.75,100,100,88.84184704,100,100,100,100,100,100,100
0.5,720,522,843,146,470559,119,119,119,117,1671,95.75,100,100,100,95.41010101,100,94,100,100,100,93.75353535,100,82,92,94.75,94.75,76.86245093,100,100,100,100,100,100,100
0.75,393,251,423,84,470559,118,119,118,118,1673,34.75,78.75,96,96,60.33222333,100,40.75,82,96,96,63.3044511,100,36.75,61.75,79,79,51.8681724,100,99.5,100,100,100,99.55555556,100
1,294,128,364,60,470559,118,119,119,118,1700,26.25,79.25,98,98,61.46247086,100,40,84.75,98,98,64.76692197,100,18.25,37,54,54,51.29531365,99.71428571,99,100,100,100,99.11111111,100
,,,,,,,,,,,,,,,,,,,,,,,,,,,,,,,,,,
,,,,,,,,,,,,,,,,,,,,,,,,,,,,,,,,,,
,,,,,,,,,,,,,,,,,,,,,,,,,,,,,,,,,,
gamma,,,,,,,,,,,,,,,,,,,,,,,,,,,,,,,,,,
,FFGQ_approx_1,FFGQ_approx_2,FFGQ_exact,FFGQ_greedy,FFGQ_b_extended,FFGQ_approx_1,FFGQ_approx_2,FFGQ_exact,FFGQ_greedy,FFGQ_b_extended,FFGQ_exact & FFGQ_approx_1,,,,,,FFGQ_exact & FFGQ_approx_2,,,,,,FFGQ_exact & FFGQ_greedy,,,,,,FFGQ_exact & FFGQ_b_extended,,,,,
,iteration,,,,,time,,,,,precision,1.5k,2k,4k,recall,overlap,precision,1.5k,2k,4k,recall,overlap,precision,1.5k,2k,4k,recall,overlap,precision,1.5k,2k,4k,recall,overlap
0.33,2446,1241,3290,267,470559,125,124,131,120,1733,98.25,100,100,0,98.44444444,100,96.75,100,100,0,97.11111111,100,91.25,98.75,100,0,88.84184704,100,100,100,100,100,100,100
0.5,2743,1316,3950,267,470559,125,122,127,118,1655,97.5,100,100,0,97.77777778,100,97.5,100,100,0,97.77777778,100,97.5,100,100,0,97.77777778,100,100,100,100,100,100,100
0.75,2746,1319,3950,267,470559,124,122,126,118,1652,97.5,100,100,0,97.77777778,100,97.5,100,100,0,97.77777778,100,97.5,100,100,0,97.77777778,100,100,100,100,100,100,100
1,601,498,691,130,470559,118,119,119,118,1673,100,100,100,0,100,100,100,100,100,0,100,100,100,100,100,0,100,100,100,100,100,100,100,72
,,,,,,,,,,,,,,,,,,,,,,,,,,,,,,,,,,
,,,,,,,,,,,,,,,,,,,,,,,,,,,,,,,,,,
,,,,,,,,,,,,,,,,,,,,,,,,,,,,,,,,,,
n'',,,,,,,,,,,,,,,,,,,,,,,,,,,,,,,,,,
,FFGQ_approx_1,FFGQ_approx_2,FFGQ_exact,FFGQ_greedy,FFGQ_b_extended,FFGQ_approx_1,FFGQ_approx_2,FFGQ_exact,FFGQ_greedy,FFGQ_b_extended,FFGQ_exact & FFGQ_approx_1,,,,,,FFGQ_exact & FFGQ_approx_2,,,,,,FFGQ_exact & FFGQ_greedy,,,,,,FFGQ_exact & FFGQ_b_extended,,,,,
,iteration,,,,,time,,,,,precision,1.5k,2k,4k,recall,overlap,precision,1.5k,2k,4k,recall,overlap,precision,1.5k,2k,4k,recall,overlap,precision,1.5k,2k,4k,recall,overlap
5,373,350,427,91,36129,118,119,119,118,228,99.25,98,100,100,99.33333333,100,96.75,98,98,100,97.11111111,100,77.5,86.5,90,90,73.90342329,86,99.25,98,98,100,99.33333333,100
6,743,576,777,189,165241,119,119,120,119,645,99.5,100,100,100,99.55555556,100,98.5,100,100,100,98.66666667,100,7,42.5,85.5,85.5,47.28773896,96.71428571,100,100,100,100,100,100
7,2446,1241,3290,267,470559,125,124,131,120,1733,98.25,100,100,100,98.44444444,100,96.75,100,100,100,97.11111111,100,91.25,98.75,100,100,88.84184704,100,100,100,100,100,100,100
8,9141,2487,24971,399,977595,150,129,196,119,3546,98.5,100,100,100,98.88888889,100,96.75,100,100,100,97.33333333,100,85.75,97.75,97.25,100,85.06355866,100,100,100,100,100,100,100