-34.723087,-69.446175
-34.72611,-69.45222
-34.66708,-69.33416
-34.58217,-69.16434
-34.611076,-69.22215
-34.678127,-69.356255
-34.574028,-69.148056
-34.583073,-69.166145
-34.585983,-69.17197
-34.738327,-69.476654
-34.77532,-69.55064
-34.57324,-69.14648
-34.625507,-69.251015
-34.620728,-69.241455
-34.77909,-69.55818
-34.695084,-69.39017
-34.702118,-69.404236
-34.61265,-69.2253
-34.62462,-69.24924
-34.769672,-69.539345
-34.657536,-69.31507
-34.658386,-69.31677
-34.657223,-69.314445
-34.699688,-69.399376
-34.644157,-69.288315
-34.775932,-69.551865
-34.762985,-69.52597
-34.72063,-69.44126
-34.75064,-69.50128
-34.7632,-69.5264
-34.59431,-69.18862
-34.77409,-69.54818
-34.686783,-69.373566
-34.754944,-69.50989
-34.585667,-69.17133
-34.65005,-69.3001
-34.62078,-69.24156
-34.72116,-69.44232
-34.69091,-69.38182
-34.689873,-69.379745
-34.6715,-69.343
-34.629444,-69.25889
-34.725464,-69.45093
-34.630146,-69.26029
-34.628227,-69.256454
-34.72418,-69.44836
-34.649178,-69.298355
-34.723114,-69.44623
-34.608322,-69.216644
-34.759247,-69.51849
-34.75997,-69.51994
-34.60492,-69.20984
-34.721687,-69.443375
-34.72255,-69.4451
-34.64196,-69.28392
-34.7643,-69.5286
-34.61208,-69.22416
-34.588688,-69.177376
-34.567474,-69.13495
-34.61257,-69.22514
-34.5691,-69.1382
-34.737324,-69.47465
-34.681763,-69.363525
-34.67861,-69.35722
-34.60443,-69.20886
-34.774006,-69.54801
-34.75202,-69.50404
-34.615383,-69.23077
-34.66926,-69.33852
-34.733868,-69.467735
-34.705883,-69.411766
-34.77302,-69.54604
-34.76808,-69.53616
-34.615387,-69.230774
-34.596073,-69.19215
-34.7215,-69.443
-34.592712,-69.185425
-34.63908,-69.27816
-34.637684,-69.27537
-34.750137,-69.500275
-34.678726,-69.35745
-34.607826,-69.21565
-34.5655,-69.131
-34.63942,-69.27884
-34.58457,-69.16914
-34.66802,-69.33604
-34.668537,-69.337074
-34.580875,-69.16175
-34.698162,-69.396324
-34.564327,-69.128654
-34.74989,-69.49978
-34.68192,-69.36384
-34.748295,-69.49659
-34.74099,-69.48198
-34.57715,-69.1543
-34.589375,-69.17875
-34.667534,-69.33507
-34.750565,-69.50113
-34.67332,-69.34664
-34.657413,-69.31483
-34.670338,-69.340675
-34.60616,-69.21232
-34.635784,-69.27157
-34.74496,-69.48992
-34.64051,-69.28102
-34.77466,-69.54932
-34.642242,-69.284485
-34.69473,-69.38946
-34.68472,-69.36944
-34.691986,-69.38397
-34.634533,-69.269066
-34.571606,-69.14321
-34.567345,-69.13469
-34.605194,-69.21039
-34.601204,-69.20241
-34.767776,-69.53555
-34.59709,-69.19418
-34.765694,-69.53139
-34.698936,-69.39787
-34.77484,-69.54968
-34.667824,-69.33565
-34.769745,-69.53949
-34.770187,-69.540375
-34.707596,-69.41519
-34.613613,-69.22723
-34.680187,-69.360374
-34.66001,-69.32002
-34.66984,-69.33968
-34.766262,-69.532524
-34.7181,-69.4362
-34.57258,-69.14516
-34.629257,-69.258514
-34.622112,-69.244225
-34.750618,-69.501236
-34.586533,-69.173065
-34.58641,-69.17282
-34.762516,-69.52503
-34.656364,-69.31273
-34.711773,-69.423546
-34.728157,-69.456314
-34.57021,-69.14042
-34.579857,-69.15971
-34.590546,-69.18109
-34.611084,-69.22217
-34.71706,-69.43412
-34.62384,-69.24768
-34.744644,-69.48929
-34.564205,-69.12841
-34.65014,-69.30028
-34.57225,-69.1445
-34.669495,-69.33899
-34.57038,-69.14076
-34.7359,-69.4718
-34.723305,-69.44661
-34.74576,-69.49152
-34.579292,-69.158585
-34.683147,-69.366295
-34.693382,-69.386765
-34.615387,-69.230774
-34.599495,-69.19899
-34.64622,-69.29244
-34.751484,-69.50297
-34.774746,-69.54949
-34.744633,-69.489265
-34.677658,-69.355316
-34.64862,-69.29724
-34.77752,-69.55504
-34.73641,-69.47282
-34.592674,-69.18535
-34.679646,-69.35929
-34.63661,-69.27322
-34.716633,-69.433266
-34.772373,-69.54475
-34.76036,-69.52072
-34.716343,-69.432686
-34.611015,-69.22203
-34.629555,-69.25911
-34.574192,-69.148384
-34.77076,-69.54152
-34.582607,-69.165215
-34.601444,-69.20289
-34.596676,-69.19335
-34.61003,-69.22006
-34.575962,-69.151924
-34.742935,-69.48587
-34.56411,-69.12822
-34.685787,-69.371574
-34.66654,-69.33308
-34.64994,-69.29988
-34.66645,-69.3329
-34.6494,-69.2988
-34.744514,-69.48903
-34.6514,-69.3028
-34.58721,-69.17442
-34.57816,-69.15632
-34.601856,-69.20371
-34.75768,-69.51536
-34.683796,-69.36759
-34.615387,-69.230774
-34.7723,-69.5446
-34.678585,-69.35717
-34.566746,-69.13349
-34.751568,-69.503136
-34.766354,-69.53271
-34.737743,-69.47549
-34.63212,-69.26424
-34.58881,-69.17762
-34.565376,-69.13075
-34.76501,-69.53002
-34.744358,-69.488716
-34.56911,-69.13822
-34.604084,-69.20817
-34.618385,-69.23677
-34.620308,-69.240616
-34.61291,-69.22582
-34.615383,-69.23077
-34.615383,-69.23077
-34.743717,-69.487434
-34.645237,-69.290474
-34.72924,-69.45848
-34.722336,-69.44467
-34.695316,-69.39063
-34.65436,-69.30872
-34.713634,-69.42727
-34.59184,-69.18368
-34.75862,-69.51724
-34.77515,-69.5503
-34.766922,-69.533844
-34.613617,-69.227234
-34.68979,-69.37958
-34.695198,-69.390396
-34.569252,-69.138504
-34.5927,-69.1854
-34.752083,-69.504166
-34.67313,-69.34626
-34.671406,-69.34281
-34.671406,-69.34281
-34.73547,-69.47094
-34.617786,-69.23557
-34.591652,-69.183304
-34.748524,-69.49705
-34.65534,-69.31068
-34.57029,-69.14058
-34.58617,-69.17234
-34.714287,-69.42857
-34.624916,-69.24983
-34.676094,-69.35219
-34.65098,-69.30196
-34.63273,-69.26546
-34.64816,-69.29632
-34.74277,-69.48554
-34.675457,-69.350914
-34.770054,-69.54011
-34.63154,-69.26308
-34.64832,-69.29664
-34.7748,-69.5496
-34.620266,-69.24053
-34.567932,-69.135864
-34.577557,-69.15511
-34.64351,-69.28702
-34.68472,-69.36944
-34.6596,-69.3192
-34.640583,-69.281166
-34.626682,-69.253365
-34.749355,-69.49871
-34.665985,-69.33197
-34.728485,-69.45697
-34.65466,-69.30932
-34.72673,-69.45346
-34.687244,-69.37449
-34.645042,-69.290085
-34.60935,-69.2187
-34.60043,-69.20086
-34.65171,-69.30342
-34.77035,-69.5407
-34.737663,-69.47533
-34.767616,-69.53523
-34.7501,-69.5002
-34.594597,-69.18919
-34.579357,-69.158714
-34.673813,-69.347626
-34.63512,-69.27024
-34.640022,-69.280045
-34.75294,-69.50588
-34.591118,-69.182236
-34.69109,-69.38218
-34.65455,-69.3091
-34.617954,-69.23591
-34.63967,-69.27934
-34.738853,-69.47771
-34.726055,-69.45211
-34.670746,-69.34149
-34.597603,-69.195206
-34.58649,-69.17298
-34.725964,-69.45193
-34.714546,-69.42909
-34.638298,-69.276596
-34.66964,-69.33928
-34.635998,-69.271996
-34.76926,-69.53852
-34.714436,-69.42887
-34.701412,-69.402824
-34.734303,-69.468605
-34.74049,-69.48098
-34.68643,-69.37286
-34.647755,-69.29551
-34.622368,-69.244736
-34.64151,-69.28302
-34.654804,-69.30961
-34.63884,-69.27768
-34.715797,-69.431595
-34.58876,-69.17752
-34.721138,-69.442276
-34.61236,-69.22472
-34.680508,-69.361015
-34.774975,-69.54995
-34.690212,-69.380424
-34.626297,-69.252594
-34.766567,-69.533134
-34.681923,-69.363846
-34.57507,-69.15014
-34.61733,-69.23466
-34.716637,-69.43327
-34.762123,-69.52425
-34.630848,-69.261696
-34.609604,-69.21921
-34.74479,-69.48958
-34.6691,-69.3382
-34.684956,-69.36991
-34.63486,-69.26972
-34.680702,-69.361404
-34.613968,-69.227936
-34.689594,-69.37919
-34.657494,-69.31499
-34.769596,-69.53919
-34.695114,-69.39023
-34.60634,-69.21268
-34.606705,-69.21341
-34.742046,-69.48409
-34.600838,-69.201675
-34.753902,-69.507805
-34.586067,-69.172134
-34.610535,-69.22107
-34.606712,-69.213425
-34.588234,-69.17647
-34.68633,-69.37266
-34.60167,-69.20334
-34.639305,-69.27861
-34.716484,-69.43297
-34.642113,-69.284225
-34.72216,-69.44432
-34.74099,-69.48198
-34.746586,-69.49317
-34.763638,-69.527275
-34.5966,-69.1932
-34.744186,-69.48837
-34.633587,-69.26717
-34.693832,-69.387665
-34.773563,-69.54713
-34.591644,-69.18329
-34.59705,-69.1941
-34.738316,-69.47663
-34.720177,-69.44035
-34.584167,-69.168335
-34.713078,-69.426155
-34.658215,-69.31643
-34.622784,-69.24557
-34.677635,-69.35527
-34.594486,-69.18897
-34.739357,-69.478714
-34.74275,-69.4855
-34.577423,-69.15485
-34.72957,-69.45914
-34.5688,-69.1376
-34.597652,-69.195305
-34.773827,-69.54765
-34.763786,-69.52757
-34.688164,-69.37633
-34.746395,-69.49279
-34.730827,-69.461655
-34.652943,-69.305885
-34.63272,-69.26544
-34.753536,-69.50707
-34.645798,-69.291595
-34.705585,-69.41117
-34.727505,-69.45501
-34.60632,-69.21264
-34.571564,-69.14313
-34.77435,-69.5487
-34.62808,-69.25616
-34.58568,-69.17136
-34.668842,-69.337685
-34.75041,-69.50082
-34.771194,-69.54239
-34.583397,-69.166794
-34.603634,-69.20727
-34.594505,-69.18901
-34.68626,-69.37252
-34.643253,-69.28651
-34.639427,-69.278854
-34.767395,-69.53479
-34.57595,-69.1519
-34.649372,-69.298744
-34.778873,-69.55775
-34.63235,-69.2647
-34.6138,-69.2276
-34.748356,-69.49671
-34.77622,-69.55244
-34.654522,-69.309044
-34.752026,-69.50405
-34.69422,-69.38844
-34.611637,-69.223274
-34.64278,-69.28556
-34.769176,-69.53835
-34.604504,-69.20901
-34.676083,-69.352165
-34.630436,-69.26087
-34.64958,-69.29916
-34.635292,-69.270584
-34.724907,-69.449814
-34.70946,-69.41892
-34.60708,-69.21416
-34.724876,-69.44975
-34.66051,-69.32102
-34.598248,-69.196495
-34.76486,-69.52972
-34.779316,-69.55863
-34.598175,-69.19635
-34.709827,-69.419655
-34.64138,-69.28276
-34.74944,-69.49888
-34.6203,-69.2406
-34.62371,-69.24742
-34.719337,-69.438675
-34.75733,-69.51466
-34.72227,-69.44454
-34.76783,-69.53566
-34.684555,-69.36911
-34.643887,-69.28777
-34.589733,-69.17947
-34.72087,-69.44174
-34.672836,-69.34567
-34.75862,-69.51724
-34.56907,-69.13814
-34.734013,-69.468025
-34.773777,-69.547554
-34.776306,-69.55261
-34.76982,-69.53964
-34.57273,-69.14546
-34.675224,-69.35045
-34.694225,-69.38845
-34.730385,-69.46077
-34.621048,-69.242096
-34.571167,-69.142334
-34.709328,-69.418655
-34.57084,-69.14168
-34.66936,-69.33872
-34.57076,-69.14152
-34.623196,-69.24639
-34.75862,-69.51724
-34.66819,-69.33638
-34.762016,-69.52403
-34.618027,-69.23605
-34.566708,-69.133415
-34.575886,-69.15177
-34.7479,-69.4958
-34.687004,-69.37401
-34.570545,-69.14109
-34.70981,-69.41962
-34.56984,-69.13968
-34.6736,-69.3472
-34.73857,-69.47714
-34.56838,-69.13676
-34.611763,-69.223526
-34.626816,-69.25363
-34.71137,-69.42274
-34.631065,-69.26213
-34.721893,-69.44379
-34.597137,-69.194275
-34.699005,-69.39801
-34.64159,-69.28318
-34.596554,-69.19311
-34.72712,-69.45424
-34.765686,-69.53137
-34.66894,-69.33788
-34.572163,-69.144325
-34.599594,-69.19919
-34.74231,-69.48462
-34.7071,-69.4142
-34.65455,-69.3091
-34.728817,-69.457634
-34.641834,-69.28367
-34.73911,-69.47822
-34.737434,-69.47487
-34.675156,-69.35031
-34.58304,-69.16608
-34.669403,-69.338806
-34.76936,-69.53872
-34.709106,-69.41821
-34.56522,-69.13044
-34.644306,-69.28861
-34.63273,-69.26546
-34.761486,-69.52297
-34.65932,-69.31864
-34.732227,-69.464455
-34.64537,-69.29074
-34.757362,-69.514725
-34.73218,-69.46436
-34.768333,-69.53667
-34.751087,-69.502174
-34.690945,-69.38189
-34.608833,-69.21767
-34.56943,-69.13886
-34.772255,-69.54451
-34.634712,-69.269424
-34.59827,-69.19654
-34.69221,-69.38442
-34.69751,-69.39502
-34.611103,-69.222206
-34.677765,-69.35553
-34.574223,-69.148445
-34.76759,-69.53518
-34.56384,-69.12768
-34.746838,-69.493675
-34.71039,-69.42078
-34.600872,-69.201744
